date, time, name, sensorValue, sensorValue2, sensorValue3, sensorValue4, sensorValue5
01-10-2016,18:40:04,sensor,1,2,3,4,5
01-10-2016,18:40:15,sensor,5,4,3,2,1
01-10-2016,18:45:05,sensor,5,4,3,2,1
01-10-2016,18:47:00,sensor,5,4,3,2,1
01-10-2016,18:52:24,sensor,5,4,3,2,1
01-10-2016,18:52:44,sensor,1,2,3,45,526
01-10-2016,19:07:06,sensor,1,2,3,45,526
01-10-2016,19:09:39,sensor,1,2,3,45,526
01-10-2016,19:10:14,sensor,1,2,3,45,526
01-10-2016,19:11:04,sensor,1,2,3,45,526
01-10-2016,19:15:01,sensor,1,2,3,45,526
01-10-2016,19:17:20,sensor,1,2,3,45,526
01-10-2016,19:22:15,sensor,1,2,3,45,526
01-10-2016,19:22:23,sensor,1,2,3,45,526
01-10-2016,19:22:23,sensor,1,2,3,45,526
01-10-2016,19:22:24,sensor,1,2,3,45,526
01-10-2016,19:34:37,sensor,1,2,3,45,526